\relax 
\catcode`"\active
\catcode`<\active
\catcode`>\active
\@nameuse{es@quoting}
\providecommand\HyperFirstAtBeginDocument{\AtBeginDocument}
\HyperFirstAtBeginDocument{\ifx\hyper@anchor\@undefined
\global\let\oldcontentsline\contentsline
\gdef\contentsline#1#2#3#4{\oldcontentsline{#1}{#2}{#3}}
\global\let\oldnewlabel\newlabel
\gdef\newlabel#1#2{\newlabelxx{#1}#2}
\gdef\newlabelxx#1#2#3#4#5#6{\oldnewlabel{#1}{{#2}{#3}}}
\AtEndDocument{\ifx\hyper@anchor\@undefined
\let\contentsline\oldcontentsline
\let\newlabel\oldnewlabel
\fi}
\fi}
\global\let\hyper@last\relax 
\gdef\HyperFirstAtBeginDocument#1{#1}
\providecommand\HyField@AuxAddToFields[1]{}
\bibstyle{es-alpha}
\reset@newl@bel
\select@language{spanish}
\@writefile{toc}{\select@language{spanish}}
\@writefile{lof}{\select@language{spanish}}
\@writefile{lot}{\select@language{spanish}}
\@writefile{toc}{\contentsline {chapter}{Resumen}{\es@scroman  {v}}{chapter*.1}}
\@writefile{lof}{\addvspace {10\p@ }}
\@writefile{lot}{\addvspace {10\p@ }}
\@writefile{toc}{\contentsline {chapter}{Abstract}{\es@scroman  {vii}}{chapter*.2}}
\@writefile{lof}{\addvspace {10\p@ }}
\@writefile{lot}{\addvspace {10\p@ }}
\@writefile{toc}{\contentsline {chapter}{Agradecimientos}{\es@scroman  {ix}}{chapter*.3}}
\@writefile{lof}{\addvspace {10\p@ }}
\@writefile{lot}{\addvspace {10\p@ }}
\@writefile{toc}{\contentsline {chapter}{\'Indice general}{\es@scroman  {xiii}}{chapter*.4}}
\@writefile{toc}{\contentsline {chapter}{\'{I}ndice de cuadros}{\es@scroman  {xvii}}{chapter*.5}}
\acronymused{CAQI}
\citation{polutionMadrid}
\citation{impuestosPV}
\citation{impuestosEspana}
\citation{aseosLondres}
\citation{accidentesBici}
\@writefile{toc}{\contentsline {chapter}{\'{I}ndice de figuras}{\es@scroman  {xix}}{chapter*.6}}
\@writefile{toc}{\contentsline {chapter}{\IeC {\'I}ndice de listados}{\es@scroman  {xxi}}{chapter*.7}}
\@writefile{toc}{\contentsline {chapter}{Listado de acr\IeC {\'o}nimos}{\es@scroman  {xxiii}}{chapter*.8}}
\@writefile{lof}{\addvspace {10\p@ }}
\@writefile{lot}{\addvspace {10\p@ }}
\acronymused{XML}
\newacro{AJAX}[\AC@hyperlink{AJAX}{AJAX}]{Asynchronous JavaScript And \acs {XML}}
\newacro{AQI}[\AC@hyperlink{AQI}{AQI}]{Air Quality Index}
\newacro{CAQI}[\AC@hyperlink{CAQI}{CAQI}]{Common Air Quality Index}
\newacro{CSS}[\AC@hyperlink{CSS}{CSS}]{Cascading Style Sheets}
\newacro{CSV}[\AC@hyperlink{CSV}{CSV}]{Comma Separated Values}
\newacro{DOM}[\AC@hyperlink{DOM}{DOM}]{Document Object Model}
\newacro{HTML}[\AC@hyperlink{HTML}{HTML}]{HyperText Markup Language}
\newacro{PHP}[\AC@hyperlink{PHP}{PHP}]{PHP Hypertext Preprocessor}
\newacro{RISP}[\AC@hyperlink{RISP}{RISP}]{Reutilizaci\IeC {\'o}n de la Informaci\IeC {\'o}n del Sector P\IeC {\'u}blico}
\newacro{SQL}[\AC@hyperlink{SQL}{SQL}]{Structured Query Language}
\newacro{SVG}[\AC@hyperlink{SVG}{SVG}]{Scalable Vector Graphics}
\newacro{TIC}[\AC@hyperlink{TIC}{TIC}]{Tecnolog\IeC {\'\i }as de Informaci\IeC {\'o}n y Comunicaci\IeC {\'o}n}
\newacro{TFG}[\AC@hyperlink{TFG}{TFG}]{Trabajo de Fin Grado}
\newacro{TSV}[\AC@hyperlink{TSV}{TSV}]{Tab Separated Values}
\newacro{XML}[\AC@hyperlink{XML}{XML}]{eXtensible Markup Language}
\@writefile{toc}{\contentsline {chapter}{\numberline {1}Introducci\IeC {\'o}n}{1}{chapter.1}}
\@writefile{lof}{\addvspace {10\p@ }}
\@writefile{lot}{\addvspace {10\p@ }}
\@writefile{toc}{\contentsline {section}{\numberline {1.1}T\IeC {\'\i }tulo del proyecto}{1}{section.1.1}}
\@writefile{toc}{\contentsline {section}{\numberline {1.2}Estructura del documento}{1}{section.1.2}}
\acronymused{TFG}
\@writefile{toc}{\contentsline {section}{\numberline {1.3}Contenido del documento}{2}{section.1.3}}
\@writefile{toc}{\contentsline {chapter}{\numberline {2}Objetivos}{5}{chapter.2}}
\@writefile{lof}{\addvspace {10\p@ }}
\@writefile{lot}{\addvspace {10\p@ }}
\newlabel{chap:objetivos}{{2}{5}{Objetivos\relax }{chapter.2}{}}
\@writefile{toc}{\contentsline {section}{\numberline {2.1}Objetivo general}{5}{section.2.1}}
\@writefile{toc}{\contentsline {section}{\numberline {2.2}Objetivos espec\IeC {\'\i }ficos}{5}{section.2.2}}
\@writefile{toc}{\contentsline {subsection}{\numberline {2.2.1}Captura de eventos}{5}{subsection.2.2.1}}
\@writefile{toc}{\contentsline {subsection}{\numberline {2.2.2}Almacenamiento de eventos}{6}{subsection.2.2.2}}
\@writefile{toc}{\contentsline {subsection}{\numberline {2.2.3}Gestionar los sensores}{6}{subsection.2.2.3}}
\@writefile{toc}{\contentsline {subsection}{\numberline {2.2.4}Presentaci\IeC {\'o}n de la informaci\IeC {\'o}n}{6}{subsection.2.2.4}}
\@writefile{toc}{\contentsline {subsection}{\numberline {2.2.5}Alertas}{6}{subsection.2.2.5}}
\citation{openDataWiki}
\@writefile{toc}{\contentsline {chapter}{\numberline {3}Antecedentes}{7}{chapter.3}}
\@writefile{lof}{\addvspace {10\p@ }}
\@writefile{lot}{\addvspace {10\p@ }}
\newlabel{chap:antecedentes}{{3}{7}{Antecedentes\relax }{chapter.3}{}}
\@writefile{toc}{\contentsline {section}{\numberline {3.1}Open Data}{7}{section.3.1}}
\acronymused{RISP}
\acronymused{RISP}
\acronymused{CSV}
\acronymused{TSV}
\citation{ley372007}
\@writefile{toc}{\contentsline {subsection}{\numberline {3.1.1}Beneficios del uso de Open Data}{9}{subsection.3.1.1}}
\citation{aporta}
\@writefile{toc}{\contentsline {subsection}{\numberline {3.1.2}Open Data en Espa\IeC {\~n}a}{11}{subsection.3.1.2}}
\@writefile{toc}{\contentsline {section}{\numberline {3.2}Visualizaci\IeC {\'o}n de datos}{12}{section.3.2}}
\@writefile{toc}{\contentsline {subsection}{\numberline {3.2.1}D3 Data Driven Documents}{14}{subsection.3.2.1}}
\acronymused{DOM}
\acronymused{HTML}
\acronymused{SVG}
\acronymused{HTML}
\acronymused{SVG}
\acronymused{CSS}
\citation{smartCityWiki}
\citation{polutionMadrid}
\citation{impuestosPV}
\citation{impuestosPV}
\citation{impuestosEspana}
\citation{aseosLondres}
\@writefile{toc}{\contentsline {subsection}{\numberline {3.2.2}Google Charts Tools}{15}{subsection.3.2.2}}
\@writefile{toc}{\contentsline {subsection}{\numberline {3.2.3}PChart}{15}{subsection.3.2.3}}
\acronymused{PHP}
\acronymused{SQL}
\acronymused{CSV}
\@writefile{toc}{\contentsline {section}{\numberline {3.3}Smart City}{15}{section.3.3}}
\acronymused{TIC}
\@writefile{lof}{\contentsline {figure}{\numberline {3.1}{\ignorespaces Gr\IeC {\'a}fico/mapa de relieve. Contaminaci\IeC {\'o}n atmosf\IeC {\'e}rica en Madrid~\cite  {polutionMadrid}.\newline  }}{15}{figure.3.1}}
\newlabel{fig:ejemplo1}{{3.1}{15}{Gráfico/mapa de relieve. Contaminación atmosférica en Madrid~\cite {polutionMadrid}.\newline \relax }{figure.3.1}{}}
\citation{accidentesBici}
\@writefile{lof}{\contentsline {figure}{\numberline {3.2}{\ignorespaces Diagrama de flujo o diagrama de Sankey. D\IeC {\'o}nde van los impuestos en Pa\IeC {\'\i }s Vasco~\cite  {impuestosPV}.\newline  }}{16}{figure.3.2}}
\newlabel{fig:ejemplo2}{{3.2}{16}{Diagrama de flujo o diagrama de Sankey. Dónde van los impuestos en País Vasco~\cite {impuestosPV}.\newline \relax }{figure.3.2}{}}
\@writefile{lof}{\contentsline {figure}{\numberline {3.3}{\ignorespaces Gr\IeC {\'a}fico circular o tarta (pie). D\IeC {\'o}nde van mis impuestos(Espa\IeC {\~n}a)~\cite  {impuestosEspana}.\newline  }}{16}{figure.3.3}}
\newlabel{fig:ejemplo3}{{3.3}{16}{Gráfico circular o tarta (pie). Dónde van mis impuestos(España)~\cite {impuestosEspana}.\newline \relax }{figure.3.3}{}}
\@writefile{lof}{\contentsline {figure}{\numberline {3.4}{\ignorespaces Mapa de aseos p\IeC {\'u}blicos en Londres (Reino Unido)~\cite  {aseosLondres}.\newline  }}{16}{figure.3.4}}
\newlabel{fig:ejemplo4}{{3.4}{16}{Mapa de aseos públicos en Londres (Reino Unido)~\cite {aseosLondres}.\newline \relax }{figure.3.4}{}}
\@writefile{lof}{\contentsline {figure}{\numberline {3.5}{\ignorespaces Mapa de accidentes de bicicleta en California(Estados Unidos)~\cite  {accidentesBici}.\newline  }}{17}{figure.3.5}}
\newlabel{fig:ejemplo5}{{3.5}{17}{Mapa de accidentes de bicicleta en California(Estados Unidos)~\cite {accidentesBici}.\newline \relax }{figure.3.5}{}}
\citation{contaminacionWiki}
\citation{contaminacionAtmosfericaWiki}
\@writefile{toc}{\contentsline {section}{\numberline {3.4}Contaminaci\IeC {\'o}n: calidad del aire, formas de medici\IeC {\'o}n y control}{18}{section.3.4}}
\@writefile{toc}{\contentsline {subsection}{\numberline {3.4.1}Contaminaci\IeC {\'o}n atmosf\IeC {\'e}rica}{18}{subsection.3.4.1}}
\@writefile{toc}{\contentsline {subsubsection}{Part\IeC {\'\i }culas}{18}{subsection.3.4.1}}
\@writefile{toc}{\contentsline {subsubsection}{Gases}{19}{subsection.3.4.1}}
\citation{airQualityWiki}
\@writefile{toc}{\contentsline {subsection}{\numberline {3.4.2}Calidad del aire}{20}{subsection.3.4.2}}
\acronymused{AQI}
\acronymused{CAQI}
\acronymused{CAQI}
\@writefile{lot}{\contentsline {table}{\numberline {3.1}{\ignorespaces Escala de valores de \acs {CAQI}}}{21}{table.3.1}}
\newlabel{tab:caqi}{{3.1}{21}{Escala de valores de \acs {CAQI}\relax }{table.3.1}{}}
\citation{appMadrid}
\@writefile{toc}{\contentsline {section}{\numberline {3.5}Aplicaci\IeC {\'o}n web en detalles}{22}{section.3.5}}
\@writefile{lof}{\contentsline {figure}{\numberline {3.6}{\ignorespaces Mapa de la Red de vigilancia.\newline  }}{23}{figure.3.6}}
\newlabel{fig:app-mapa}{{3.6}{23}{Mapa de la Red de vigilancia.\newline \relax }{figure.3.6}{}}
\@writefile{lof}{\contentsline {figure}{\numberline {3.7}{\ignorespaces Informaci\IeC {\'o}n de los puntos vigilados.\newline  }}{23}{figure.3.7}}
\newlabel{fig:app-inf}{{3.7}{23}{Información de los puntos vigilados.\newline \relax }{figure.3.7}{}}
\@writefile{lof}{\contentsline {figure}{\numberline {3.8}{\ignorespaces Obtenci\IeC {\'o}n de datos en gr\IeC {\'a}ficas con filtrado (1).\newline  }}{24}{figure.3.8}}
\newlabel{fig:app-filtro}{{3.8}{24}{Obtención de datos en gráficas con filtrado (1).\newline \relax }{figure.3.8}{}}
\@writefile{lof}{\contentsline {figure}{\numberline {3.9}{\ignorespaces Gr\IeC {\'a}ficas del filtrado (1).\newline  }}{24}{figure.3.9}}
\newlabel{fig:app-filtro-resultado}{{3.9}{24}{Gráficas del filtrado (1).\newline \relax }{figure.3.9}{}}
\@writefile{lof}{\contentsline {figure}{\numberline {3.10}{\ignorespaces Obtenci\IeC {\'o}n de datos en gr\IeC {\'a}ficas con filtrado (2).\newline  }}{25}{figure.3.10}}
\newlabel{fig:app-filtro2}{{3.10}{25}{Obtención de datos en gráficas con filtrado (2).\newline \relax }{figure.3.10}{}}
\@writefile{lof}{\contentsline {figure}{\numberline {3.11}{\ignorespaces Gr\IeC {\'a}ficas del filtrado (2).\newline  }}{25}{figure.3.11}}
\newlabel{fig:app-filtro2-resultado}{{3.11}{25}{Gráficas del filtrado (2).\newline \relax }{figure.3.11}{}}
\@writefile{lof}{\contentsline {figure}{\numberline {3.12}{\ignorespaces Mapa gr\IeC {\'a}fico de previsi\IeC {\'o}n.}}{25}{figure.3.12}}
\newlabel{fig:app-prevision}{{3.12}{25}{Mapa gráfico de previsión}{figure.3.12}{}}
\citation{noticiaMadrid}
\@writefile{toc}{\contentsline {section}{\numberline {3.6}Acontecimientos de la actualidad}{26}{section.3.6}}
\citation{agilScrum}
\@writefile{toc}{\contentsline {chapter}{\numberline {4}M\IeC {\'e}todo de trabajo}{27}{chapter.4}}
\@writefile{lof}{\addvspace {10\p@ }}
\@writefile{lot}{\addvspace {10\p@ }}
\newlabel{chap:metodo}{{4}{27}{Método de trabajo\relax }{chapter.4}{}}
\@writefile{toc}{\contentsline {section}{\numberline {4.1}Metodolog\IeC {\'\i }a de trabajo}{27}{section.4.1}}
\citation{agilScrum}
\@writefile{toc}{\contentsline {section}{\numberline {4.2}Scrum}{28}{section.4.2}}
\@writefile{toc}{\contentsline {subsection}{\numberline {4.2.1}Fases de Scrum}{28}{subsection.4.2.1}}
\@writefile{toc}{\contentsline {subsubsection}{Pre-game:}{28}{subsection.4.2.1}}
\@writefile{toc}{\contentsline {subsubsection}{Development:}{29}{subsection.4.2.1}}
\@writefile{toc}{\contentsline {subsubsection}{Post-game:}{29}{subsection.4.2.1}}
\@writefile{toc}{\contentsline {subsection}{\numberline {4.2.2}Fases Scrum en el proyecto}{29}{subsection.4.2.2}}
\@writefile{toc}{\contentsline {subsubsection}{Pre-game}{30}{subsection.4.2.2}}
\citation{django}
\@writefile{toc}{\contentsline {subsubsection}{Development}{31}{subsection.4.2.2}}
\citation{manualZeroC}
\citation{django}
\@writefile{toc}{\contentsline {subsubsection}{Post-Game}{33}{subsection.4.2.2}}
\@writefile{toc}{\contentsline {section}{\numberline {4.3}Herramientas}{33}{section.4.3}}
\@writefile{toc}{\contentsline {subsection}{\numberline {4.3.1}Software utilizado}{33}{subsection.4.3.1}}
\citation{manualZeroC}
\acronymused{HTML}
\@writefile{toc}{\contentsline {subsection}{\numberline {4.3.2}Hardware utilizado}{34}{subsection.4.3.2}}
\@writefile{toc}{\contentsline {chapter}{\numberline {5}Resultados}{35}{chapter.5}}
\@writefile{lof}{\addvspace {10\p@ }}
\@writefile{lot}{\addvspace {10\p@ }}
\newlabel{chap:resultados}{{5}{35}{Resultados\relax }{chapter.5}{}}
\@writefile{toc}{\contentsline {section}{\numberline {5.1}ITERACI\IeC {\'O}N 0: Recogida de informaci\IeC {\'o}n y estado del arte}{35}{section.5.1}}
\citation{django}
\citation{manualZeroC}
\citation{manualZeroC}
\@writefile{toc}{\contentsline {section}{\numberline {5.2}ITERACI\IeC {\'O}N 1 y 2: Comunicaci\IeC {\'o}n entre la ciudad y el sistema}{36}{section.5.2}}
\citation{django}
\citation{django}
\citation{django}
\citation{django}
\@writefile{toc}{\contentsline {section}{\numberline {5.3}ITERACI\IeC {\'O}N 3: Gesti\IeC {\'o}n de sensores}{37}{section.5.3}}
\acronymused{CSS}
\newlabel{code:conf}{{5.1}{37}{Archivo de configuración\relax }{lstlisting.5.1}{}}
\@writefile{lol}{\contentsline {lstlisting}{\numberline {5.1}Archivo de configuraci\IeC {\'o}n}{37}{lstlisting.5.1}}
\citation{django}
\newlabel{code:confApp}{{5.2}{38}{Configuración para la instalación de la aplicación sensors\relax }{lstlisting.5.2}{}}
\@writefile{lol}{\contentsline {lstlisting}{\numberline {5.2}Configuraci\IeC {\'o}n para la instalaci\IeC {\'o}n de la aplicaci\IeC {\'o}n sensors}{38}{lstlisting.5.2}}
\newlabel{code:sensorApp}{{5.3}{38}{Creación de aplicación sensors\relax }{lstlisting.5.3}{}}
\@writefile{lol}{\contentsline {lstlisting}{\numberline {5.3}Creaci\IeC {\'o}n de aplicaci\IeC {\'o}n sensors}{38}{lstlisting.5.3}}
\newlabel{code:model}{{5.4}{38}{Creación del modelo en la base de datos\relax }{lstlisting.5.4}{}}
\@writefile{lol}{\contentsline {lstlisting}{\numberline {5.4}Creaci\IeC {\'o}n del modelo en la base de datos}{38}{lstlisting.5.4}}
\acronymused{HTML}
\@writefile{toc}{\contentsline {subsection}{\numberline {5.3.1}A\IeC {\~n}adir sensor}{39}{subsection.5.3.1}}
\acronymused{AJAX}
\acronymused{HTML}
\@writefile{toc}{\contentsline {subsection}{\numberline {5.3.2}Eliminar sensor}{40}{subsection.5.3.2}}
\acronymused{AJAX}
\citation{django}
\@writefile{toc}{\contentsline {subsection}{\numberline {5.3.3}Modificar sensor}{41}{subsection.5.3.3}}
\acronymused{AJAX}
\citation{django}
\citation{django}
\@writefile{toc}{\contentsline {section}{\numberline {5.4}ITERACI\IeC {\'O}N 4 y 5: Uso y manejo de informaci\IeC {\'o}n}{42}{section.5.4}}
\@writefile{toc}{\contentsline {subsection}{\numberline {5.4.1}Manejo de la situaci\IeC {\'o}n actual}{42}{subsection.5.4.1}}
\citation{django}
\acronymused{TSV}
\acronymused{TSV}
\citation{django}
\citation{django}
\@writefile{toc}{\contentsline {subsection}{\numberline {5.4.2}Manejo de datos acontecidos anteriormente\newline  }{44}{subsection.5.4.2}}
\@writefile{toc}{\contentsline {subsubsection}{Visualizaci\IeC {\'o}n semanal}{44}{subsection.5.4.2}}
\acronymused{TSV}
\acronymused{TSV}
\acronymused{TSV}
\acronymused{TSV}
\acronymused{AJAX}
\@writefile{toc}{\contentsline {subsubsection}{Acontecimientos del \IeC {\'u}ltimo mes}{45}{subsection.5.4.2}}
\acronymused{AJAX}
\acronymused{AJAX}
\acronymused{TSV}
\@writefile{toc}{\contentsline {subsubsection}{Estad\IeC {\'\i }stica anual}{46}{subsection.5.4.2}}
\acronymused{AJAX}
\acronymused{HTML}
\acronymused{AJAX}
\@writefile{toc}{\contentsline {subsection}{\numberline {5.4.3}Listado de alarmas por valores excedidos y filtrado}{47}{subsection.5.4.3}}
\acronymused{AJAX}
\@writefile{toc}{\contentsline {section}{\numberline {5.5}ITERACI\IeC {\'O}N 6: Interfaz del sistema}{48}{section.5.5}}
\citation{django}
\citation{django}
\@writefile{toc}{\contentsline {section}{\numberline {5.6}Despliegue de la aplicaci\IeC {\'o}n}{49}{section.5.6}}
\@writefile{toc}{\contentsline {section}{\numberline {5.7}Valoraci\IeC {\'o}n de costes del proyecto\newline  }{50}{section.5.7}}
\@writefile{lot}{\contentsline {table}{\numberline {5.1}{\ignorespaces Valoraci\IeC {\'o}n de costes Iteraci\IeC {\'o}n 0: recogida de informaci\IeC {\'o}n y estado del arte}}{50}{table.5.1}}
\newlabel{tab:i0}{{5.1}{50}{Valoración de costes Iteración 0: recogida de información y estado del arte\relax }{table.5.1}{}}
\@writefile{lot}{\contentsline {table}{\numberline {5.2}{\ignorespaces Valoraci\IeC {\'o}n de costes Iteraci\IeC {\'o}n 1 y 2: comunicaci\IeC {\'o}n entre la ciudad y el sistema}}{50}{table.5.2}}
\newlabel{tab:i12}{{5.2}{50}{Valoración de costes Iteración 1 y 2: comunicación entre la ciudad y el sistema\relax }{table.5.2}{}}
\@writefile{lot}{\contentsline {table}{\numberline {5.3}{\ignorespaces Valoraci\IeC {\'o}n de costes Iteraci\IeC {\'o}n 3: gesti\IeC {\'o}n de sensores}}{51}{table.5.3}}
\newlabel{tab:i3}{{5.3}{51}{Valoración de costes Iteración 3: gestión de sensores\relax }{table.5.3}{}}
\@writefile{lot}{\contentsline {table}{\numberline {5.4}{\ignorespaces Valoraci\IeC {\'o}n de costes Iteraci\IeC {\'o}n 4 y 5: uso y manejo de informaci\IeC {\'o}n}}{52}{table.5.4}}
\newlabel{tab:i45}{{5.4}{52}{Valoración de costes Iteración 4 y 5: uso y manejo de información\relax }{table.5.4}{}}
\@writefile{lot}{\contentsline {table}{\numberline {5.5}{\ignorespaces Valoraci\IeC {\'o}n de costes Iteraci\IeC {\'o}n 6: interfaz del sistema}}{52}{table.5.5}}
\newlabel{tab:i6}{{5.5}{52}{Valoración de costes Iteración 6: interfaz del sistema\relax }{table.5.5}{}}
\@writefile{lot}{\contentsline {table}{\numberline {5.6}{\ignorespaces Valoraci\IeC {\'o}n de costes del proyecto}}{53}{table.5.6}}
\newlabel{tab:valoracion}{{5.6}{53}{Valoración de costes del proyecto\relax }{table.5.6}{}}
\@writefile{toc}{\contentsline {chapter}{\numberline {6}Conclusiones}{55}{chapter.6}}
\@writefile{lof}{\addvspace {10\p@ }}
\@writefile{lot}{\addvspace {10\p@ }}
\newlabel{chap:conclusiones}{{6}{55}{Conclusiones\relax }{chapter.6}{}}
\acronymused{TSV}
\acronymused{TFG}
\@writefile{toc}{\contentsline {chapter}{\numberline {A}Manual de utilizaci\IeC {\'o}n}{59}{appendix.Alph1}}
\@writefile{lof}{\addvspace {10\p@ }}
\@writefile{lot}{\addvspace {10\p@ }}
\@writefile{toc}{\contentsline {section}{\numberline {A.1}Men\IeC {\'u} principal}{59}{section.Alph1.1}}
\@writefile{toc}{\contentsline {section}{\numberline {A.2}A\IeC {\~n}adir sensor}{59}{section.Alph1.2}}
\@writefile{toc}{\contentsline {section}{\numberline {A.3}Modificar sensor}{60}{section.Alph1.3}}
\@writefile{toc}{\contentsline {section}{\numberline {A.4}Eliminar sensor}{60}{section.Alph1.4}}
\@writefile{toc}{\contentsline {section}{\numberline {A.5}Visualizaci\IeC {\'o}n de informaci\IeC {\'o}n\newline  }{60}{section.Alph1.5}}
\@writefile{toc}{\contentsline {subsection}{\numberline {A.5.1}Informaci\IeC {\'o}n actual}{60}{subsection.Alph1.5.1}}
\@writefile{toc}{\contentsline {subsection}{\numberline {A.5.2}Informaci\IeC {\'o}n semanal}{60}{subsection.Alph1.5.2}}
\@writefile{toc}{\contentsline {subsection}{\numberline {A.5.3}Informaci\IeC {\'o}n mensual}{61}{subsection.Alph1.5.3}}
\@writefile{toc}{\contentsline {subsection}{\numberline {A.5.4}Informaci\IeC {\'o}n Anual}{61}{subsection.Alph1.5.4}}
\@writefile{toc}{\contentsline {subsection}{\numberline {A.5.5}Alertas por valores excedidos de contaminaci\IeC {\'o}n}{61}{subsection.Alph1.5.5}}
\bibdata{main}
\bibcite{accidentesBici}{acc}
\bibcite{airQualityWiki}{air}
\bibcite{aporta}{apo}
\bibcite{appMadrid}{app}
\bibcite{aseosLondres}{ase}
\bibcite{agilScrum}{ASRW13}
\bibcite{contaminacionWiki}{cona}
\bibcite{contaminacionAtmosfericaWiki}{conb}
\bibcite{manualZeroC}{DVA12}
\bibcite{django}{HM07}
\bibcite{impuestosPV}{impa}
\bibcite{impuestosEspana}{impb}
\bibcite{ley372007}{ley}
\@writefile{toc}{\contentsline {chapter}{Referencias}{63}{appendix*.9}}
\bibcite{noticiaMadrid}{not}
\bibcite{openDataWiki}{ope}
\bibcite{polutionMadrid}{pol}
\bibcite{smartCityWiki}{sma}
